VHDL/count8/simulation/qsim/Count8.msim.vcd
$comment
	File created using the following command:
		vcd file Count8.msim.vcd -direction
$end
$date
	Tue May 09 21:27:10 2023
$end
$version
	ModelSim Version 10.5b
$end
$timescale
	1ps
$end

$scope module count8_vhd_vec_tst $end
$var wire 1 ! clk $end
$var wire 1 " q [9] $end
$var wire 1 # q [8] $end
$var wire 1 $ q [7] $end
$var wire 1 % q [6] $end
$var wire 1 & q [5] $end
$var wire 1 ' q [4] $end
$var wire 1 ( q [3] $end
$var wire 1 ) q [2] $end
$var wire 1 * q [1] $end
$var wire 1 + q [0] $end

$scope module i1 $end
$var wire 1 , gnd $end
$var wire 1 - vcc $end
$var wire 1 . unknown $end
$var wire 1 / devoe $end
$var wire 1 0 devclrn $end
$var wire 1 1 devpor $end
$var wire 1 2 ww_devoe $end
$var wire 1 3 ww_devclrn $end
$var wire 1 4 ww_devpor $end
$var wire 1 5 ww_clk $end
$var wire 1 6 ww_q [9] $end
$var wire 1 7 ww_q [8] $end
$var wire 1 8 ww_q [7] $end
$var wire 1 9 ww_q [6] $end
$var wire 1 : ww_q [5] $end
$var wire 1 ; ww_q [4] $end
$var wire 1 < ww_q [3] $end
$var wire 1 = ww_q [2] $end
$var wire 1 > ww_q [1] $end
$var wire 1 ? ww_q [0] $end
$var wire 1 @ \clk~combout\ $end
$var wire 1 A \tem[1]~1\ $end
$var wire 1 B \tem[1]~1COUT1_20\ $end
$var wire 1 C \tem[2]~3\ $end
$var wire 1 D \tem[2]~3COUT1_21\ $end
$var wire 1 E \tem[3]~5\ $end
$var wire 1 F \tem[3]~5COUT1_22\ $end
$var wire 1 G \tem[4]~7\ $end
$var wire 1 H \tem[4]~7COUT1_23\ $end
$var wire 1 I \tem[5]~9\ $end
$var wire 1 J \tem[6]~11\ $end
$var wire 1 K \tem[6]~11COUT1_24\ $end
$var wire 1 L \tem[7]~13\ $end
$var wire 1 M \tem[7]~13COUT1_25\ $end
$var wire 1 N \tem[8]~15\ $end
$var wire 1 O \tem[8]~15COUT1_26\ $end
$var wire 1 P tem [9] $end
$var wire 1 Q tem [8] $end
$var wire 1 R tem [7] $end
$var wire 1 S tem [6] $end
$var wire 1 T tem [5] $end
$var wire 1 U tem [4] $end
$var wire 1 V tem [3] $end
$var wire 1 W tem [2] $end
$var wire 1 X tem [1] $end
$var wire 1 Y tem [0] $end
$upscope $end
$upscope $end
$enddefinitions $end
#0
$dumpvars
0!
0,
1-
x.
1/
10
11
12
13
14
05
0@
0A
0B
1C
1D
0E
0F
1G
1H
0I
1J
1K
0L
0M
1N
1O
06
07
08
09
0:
0;
0<
0=
0>
0?
0P
0Q
0R
0S
0T
0U
0V
0W
0X
0Y
0"
0#
0$
0%
0&
0'
0(
0)
0*
0+
$end
#500
1!
15
1@
1Y
1?
1+
#1000
0!
05
0@
#1500
1!
15
1@
1X
0Y
0?
1>
0+
1*
#2000
0!
05
0@
#2500
1!
15
1@
1Y
1A
1B
1?
1+
#3000
0!
05
0@
#3500
1!
15
1@
1W
0X
0Y
0?
0A
0B
0>
0C
0D
1=
0+
0*
1)
1C
1D
#4000
0!
05
0@
#4500
1!
15
1@
1Y
1?
1+
#5000
0!
05
0@
#5500
1!
15
1@
1X
0Y
0?
1>
0+
1*
#6000
0!
05
0@
#6500
1!
15
1@
1Y
1A
1B
1?
1+
0C
0D
#7000
0!
05
0@
#7500
1!
15
1@
1V
0W
0X
0Y
0?
0A
0B
0>
1C
1D
0=
1E
1F
1<
0+
0*
0)
1(
0E
0F
#8000
0!
05
0@
#8500
1!
15
1@
1Y
1?
1+
#9000
0!
05
0@
#9500
1!
15
1@
1X
0Y
0?
1>
0+
1*
#10000
0!
05
0@
#10500
1!
15
1@
1Y
1A
1B
1?
1+
#11000
0!
05
0@
#11500
1!
15
1@
1W
0X
0Y
0?
0A
0B
0>
0C
0D
1=
0+
0*
1)
1E
1F
1C
1D
0E
0F
#12000
0!
05
0@
#12500
1!
15
1@
1Y
1?
1+
#13000
0!
05
0@
#13500
1!
15
1@
1X
0Y
0?
1>
0+
1*
#14000
0!
05
0@
#14500
1!
15
1@
1Y
1A
1B
1?
1+
0C
0D
1E
1F
#15000
0!
05
0@
#15500
1!
15
1@
1U
0V
0W
0X
0Y
0?
0A
0B
0>
1C
1D
0=
0E
0F
0<
0G
0H
1;
0+
0*
0)
0(
1'
1G
1H
#16000
0!
05
0@
#16500
1!
15
1@
1Y
1?
1+
#17000
0!
05
0@
#17500
1!
15
1@
1X
0Y
0?
1>
0+
1*
#18000
0!
05
0@
#18500
1!
15
1@
1Y
1A
1B
1?
1+
#19000
0!
05
0@
#19500
1!
15
1@
1W
0X
0Y
0?
0A
0B
0>
0C
0D
1=
0+
0*
1)
1C
1D
#20000
0!
05
0@
#20500
1!
15
1@
1Y
1?
1+
#21000
0!
05
0@
#21500
1!
15
1@
1X
0Y
0?
1>
0+
1*
#22000
0!
05
0@
#22500
1!
15
1@
1Y
1A
1B
1?
1+
0C
0D
#23000
0!
05
0@
#23500
1!
15
1@
1V
0W
0X
0Y
0?
0A
0B
0>
1C
1D
0=
1E
1F
1<
0+
0*
0)
1(
0G
0H
0E
0F
1G
1H
#24000
0!
05
0@
#24500
1!
15
1@
1Y
1?
1+
#25000
0!
05
0@
#25500
1!
15
1@
1X
0Y
0?
1>
0+
1*
#26000
0!
05
0@
#26500
1!
15
1@
1Y
1A
1B
1?
1+
#27000
0!
05
0@
#27500
1!
15
1@
1W
0X
0Y
0?
0A
0B
0>
0C
0D
1=
0+
0*
1)
1E
1F
1C
1D
0E
0F
0G
0H
1G
1H
#28000
0!
05
0@
#28500
1!
15
1@
1Y
1?
1+
#29000
0!
05
0@
#29500
1!
15
1@
1X
0Y
0?
1>
0+
1*
#30000
0!
05
0@
#30500
1!
15
1@
1Y
1A
1B
1?
1+
0C
0D
1E
1F
0G
0H
#31000
0!
05
0@
#31500
1!
15
1@
1T
0U
0V
0W
0X
0Y
0?
0A
0B
0>
1C
1D
0=
0E
0F
0<
1G
1H
0;
1I
1:
0+
0*
0)
0(
0'
1&
0I
#32000
0!
05
0@
#32500
1!
15
1@
1Y
1?
1+
#33000
0!
05
0@
#33500
1!
15
1@
1X
0Y
0?
1>
0+
1*
#34000
0!
05
0@
#34500
1!
15
1@
1Y
1A
1B
1?
1+
#35000
0!
05
0@
#35500
1!
15
1@
1W
0X
0Y
0?
0A
0B
0>
0C
0D
1=
0+
0*
1)
1C
1D
#36000
0!
05
0@
#36500
1!
15
1@
1Y
1?
1+
#37000
0!
05
0@
#37500
1!
15
1@
1X
0Y
0?
1>
0+
1*
#38000
0!
05
0@
#38500
1!
15
1@
1Y
1A
1B
1?
1+
0C
0D
#39000
0!
05
0@
#39500
1!
15
1@
1V
0W
0X
0Y
0?
0A
0B
0>
1C
1D
0=
1E
1F
1<
0+
0*
0)
1(
0E
0F
#40000
0!
05
0@
#40500
1!
15
1@
1Y
1?
1+
#41000
0!
05
0@
#41500
1!
15
1@
1X
0Y
0?
1>
0+
1*
#42000
0!
05
0@
#42500
1!
15
1@
1Y
1A
1B
1?
1+
#43000
0!
05
0@
#43500
1!
15
1@
1W
0X
0Y
0?
0A
0B
0>
0C
0D
1=
0+
0*
1)
1E
1F
1C
1D
0E
0F
#44000
0!
05
0@
#44500
1!
15
1@
1Y
1?
1+
#45000
0!
05
0@
#45500
1!
15
1@
1X
0Y
0?
1>
0+
1*
#46000
0!
05
0@
#46500
1!
15
1@
1Y
1A
1B
1?
1+
0C
0D
1E
1F
#47000
0!
05
0@
#47500
1!
15
1@
1U
0V
0W
0X
0Y
0?
0A
0B
0>
1C
1D
0=
0E
0F
0<
0G
0H
1;
0+
0*
0)
0(
1'
1I
1G
1H
0I
#48000
0!
05
0@
#48500
1!
15
1@
1Y
1?
1+
#49000
0!
05
0@
#49500
1!
15
1@
1X
0Y
0?
1>
0+
1*
#50000
0!
05
0@
#50500
1!
15
1@
1Y
1A
1B
1?
1+
#51000
0!
05
0@
#51500
1!
15
1@
1W
0X
0Y
0?
0A
0B
0>
0C
0D
1=
0+
0*
1)
1C
1D
#52000
0!
05
0@
#52500
1!
15
1@
1Y
1?
1+
#53000
0!
05
0@
#53500
1!
15
1@
1X
0Y
0?
1>
0+
1*
#54000
0!
05
0@
#54500
1!
15
1@
1Y
1A
1B
1?
1+
0C
0D
#55000
0!
05
0@
#55500
1!
15
1@
1V
0W
0X
0Y
0?
0A
0B
0>
1C
1D
0=
1E
1F
1<
0+
0*
0)
1(
0G
0H
0E
0F
1G
1H
1I
0I
#56000
0!
05
0@
#56500
1!
15
1@
1Y
1?
1+
#57000
0!
05
0@
#57500
1!
15
1@
1X
0Y
0?
1>
0+
1*
#58000
0!
05
0@
#58500
1!
15
1@
1Y
1A
1B
1?
1+
#59000
0!
05
0@
#59500
1!
15
1@
1W
0X
0Y
0?
0A
0B
0>
0C
0D
1=
0+
0*
1)
1E
1F
1C
1D
0E
0F
0G
0H
1I
1G
1H
0I
#60000
0!
05
0@
#60500
1!
15
1@
1Y
1?
1+
#61000
0!
05
0@
#61500
1!
15
1@
1X
0Y
0?
1>
0+
1*
#62000
0!
05
0@
#62500
1!
15
1@
1Y
1A
1B
1?
1+
0C
0D
1E
1F
0G
0H
1I
#63000
0!
05
0@
#63500
1!
15
1@
1S
0T
0U
0V
0W
0X
0Y
0?
0A
0B
0>
1C
1D
0=
0E
0F
0<
1G
1H
0;
0I
0:
0K
19
0+
0*
0)
0(
0'
0&
1%
#64000
0!
05
0@
#64500
1!
15
1@
1Y
1?
1+
#65000
0!
05
0@
#65500
1!
15
1@
1X
0Y
0?
1>
0+
1*
#66000
0!
05
0@
#66500
1!
15
1@
1Y
1A
1B
1?
1+
#67000
0!
05
0@
#67500
1!
15
1@
1W
0X
0Y
0?
0A
0B
0>
0C
0D
1=
0+
0*
1)
1C
1D
#68000
0!
05
0@
#68500
1!
15
1@
1Y
1?
1+
#69000
0!
05
0@
#69500
1!
15
1@
1X
0Y
0?
1>
0+
1*
#70000
0!
05
0@
#70500
1!
15
1@
1Y
1A
1B
1?
1+
0C
0D
#71000
0!
05
0@
#71500
1!
15
1@
1V
0W
0X
0Y
0?
0A
0B
0>
1C
1D
0=
1E
1F
1<
0+
0*
0)
1(
0E
0F
#72000
0!
05
0@
#72500
1!
15
1@
1Y
1?
1+
#73000
0!
05
0@
#73500
1!
15
1@
1X
0Y
0?
1>
0+
1*
#74000
0!
05
0@
#74500
1!
15
1@
1Y
1A
1B
1?
1+
#75000
0!
05
0@
#75500
1!
15
1@
1W
0X
0Y
0?
0A
0B
0>
0C
0D
1=
0+
0*
1)
1E
1F
1C
1D
0E
0F
#76000
0!
05
0@
#76500
1!
15
1@
1Y
1?
1+
#77000
0!
05
0@
#77500
1!
15
1@
1X
0Y
0?
1>
0+
1*
#78000
0!
05
0@
#78500
1!
15
1@
1Y
1A
1B
1?
1+
0C
0D
1E
1F
#79000
0!
05
0@
#79500
1!
15
1@
1U
0V
0W
0X
0Y
0?
0A
0B
0>
1C
1D
0=
0E
0F
0<
0G
0H
1;
0+
0*
0)
0(
1'
1G
1H
#80000
0!
05
0@
#80500
1!
15
1@
1Y
1?
1+
#81000
0!
05
0@
#81500
1!
15
1@
1X
0Y
0?
1>
0+
1*
#82000
0!
05
0@
#82500
1!
15
1@
1Y
1A
1B
1?
1+
#83000
0!
05
0@
#83500
1!
15
1@
1W
0X
0Y
0?
0A
0B
0>
0C
0D
1=
0+
0*
1)
1C
1D
#84000
0!
05
0@
#84500
1!
15
1@
1Y
1?
1+
#85000
0!
05
0@
#85500
1!
15
1@
1X
0Y
0?
1>
0+
1*
#86000
0!
05
0@
#86500
1!
15
1@
1Y
1A
1B
1?
1+
0C
0D
#87000
0!
05
0@
#87500
1!
15
1@
1V
0W
0X
0Y
0?
0A
0B
0>
1C
1D
0=
1E
1F
1<
0+
0*
0)
1(
0G
0H
0E
0F
1G
1H
#88000
0!
05
0@
#88500
1!
15
1@
1Y
1?
1+
#89000
0!
05
0@
#89500
1!
15
1@
1X
0Y
0?
1>
0+
1*
#90000
0!
05
0@
#90500
1!
15
1@
1Y
1A
1B
1?
1+
#91000
0!
05
0@
#91500
1!
15
1@
1W
0X
0Y
0?
0A
0B
0>
0C
0D
1=
0+
0*
1)
1E
1F
1C
1D
0E
0F
0G
0H
1G
1H
#92000
0!
05
0@
#92500
1!
15
1@
1Y
1?
1+
#93000
0!
05
0@
#93500
1!
15
1@
1X
0Y
0?
1>
0+
1*
#94000
0!
05
0@
#94500
1!
15
1@
1Y
1A
1B
1?
1+
0C
0D
1E
1F
0G
0H
#95000
0!
05
0@
#95500
1!
15
1@
1T
0U
0V
0W
0X
0Y
0?
0A
0B
0>
1C
1D
0=
0E
0F
0<
1G
1H
0;
1I
1:
0+
0*
0)
0(
0'
1&
0I
#96000
0!
05
0@
#96500
1!
15
1@
1Y
1?
1+
#97000
0!
05
0@
#97500
1!
15
1@
1X
0Y
0?
1>
0+
1*
#98000
0!
05
0@
#98500
1!
15
1@
1Y
1A
1B
1?
1+
#99000
0!
05
0@
#99500
1!
15
1@
1W
0X
0Y
0?
0A
0B
0>
0C
0D
1=
0+
0*
1)
1C
1D
#100000
0!
05
0@
#100500
1!
15
1@
1Y
1?
1+
#101000
0!
05
0@
#101500
1!
15
1@
1X
0Y
0?
1>
0+
1*
#102000
0!
05
0@
#102500
1!
15
1@
1Y
1A
1B
1?
1+
0C
0D
#103000
0!
05
0@
#103500
1!
15
1@
1V
0W
0X
0Y
0?
0A
0B
0>
1C
1D
0=
1E
1F
1<
0+
0*
0)
1(
0E
0F
#104000
0!
05
0@
#104500
1!
15
1@
1Y
1?
1+
#105000
0!
05
0@
#105500
1!
15
1@
1X
0Y
0?
1>
0+
1*
#106000
0!
05
0@
#106500
1!
15
1@
1Y
1A
1B
1?
1+
#107000
0!
05
0@
#107500
1!
15
1@
1W
0X
0Y
0?
0A
0B
0>
0C
0D
1=
0+
0*
1)
1E
1F
1C
1D
0E
0F
#108000
0!
05
0@
#108500
1!
15
1@
1Y
1?
1+
#109000
0!
05
0@
#109500
1!
15
1@
1X
0Y
0?
1>
0+
1*
#110000
0!
05
0@
#110500
1!
15
1@
1Y
1A
1B
1?
1+
0C
0D
1E
1F
#111000
0!
05
0@
#111500
1!
15
1@
1U
0V
0W
0X
0Y
0?
0A
0B
0>
1C
1D
0=
0E
0F
0<
0G
0H
1;
0+
0*
0)
0(
1'
1I
1G
1H
0I
#112000
0!
05
0@
#112500
1!
15
1@
1Y
1?
1+
#113000
0!
05
0@
#113500
1!
15
1@
1X
0Y
0?
1>
0+
1*
#114000
0!
05
0@
#114500
1!
15
1@
1Y
1A
1B
1?
1+
#115000
0!
05
0@
#115500
1!
15
1@
1W
0X
0Y
0?
0A
0B
0>
0C
0D
1=
0+
0*
1)
1C
1D
#116000
0!
05
0@
#116500
1!
15
1@
1Y
1?
1+
#117000
0!
05
0@
#117500
1!
15
1@
1X
0Y
0?
1>
0+
1*
#118000
0!
05
0@
#118500
1!
15
1@
1Y
1A
1B
1?
1+
0C
0D
#119000
0!
05
0@
#119500
1!
15
1@
1V
0W
0X
0Y
0?
0A
0B
0>
1C
1D
0=
1E
1F
1<
0+
0*
0)
1(
0G
0H
0E
0F
1G
1H
1I
0I
#120000
0!
05
0@
#120500
1!
15
1@
1Y
1?
1+
#121000
0!
05
0@
#121500
1!
15
1@
1X
0Y
0?
1>
0+
1*
#122000
0!
05
0@
#122500
1!
15
1@
1Y
1A
1B
1?
1+
#123000
0!
05
0@
#123500
1!
15
1@
1W
0X
0Y
0?
0A
0B
0>
0C
0D
1=
0+
0*
1)
1E
1F
1C
1D
0E
0F
0G
0H
1I
1G
1H
0I
#124000
0!
05
0@
#124500
1!
15
1@
1Y
1?
1+
#125000
0!
05
0@
#125500
1!
15
1@
1X
0Y
0?
1>
0+
1*
#126000
0!
05
0@
#126500
1!
15
1@
1Y
1A
1B
1?
1+
0C
0D
1E
1F
0G
0H
1I
#127000
0!
05
0@
#127500
1!
15
1@
1R
0S
0T
0U
0V
0W
0X
0Y
0?
0A
0B
0>
1C
1D
0=
0E
0F
0<
1G
1H
0;
0I
0:
1K
09
1M
18
0+
0*
0)
0(
0'
0&
0%
1$
0M
#128000
0!
05
0@
#128500
1!
15
1@
1Y
1?
1+
#129000
0!
05
0@
#129500
1!
15
1@
1X
0Y
0?
1>
0+
1*
#130000
0!
05
0@
#130500
1!
15
1@
1Y
1A
1B
1?
1+
#131000
0!
05
0@
#131500
1!
15
1@
1W
0X
0Y
0?
0A
0B
0>
0C
0D
1=
0+
0*
1)
1C
1D
#132000
0!
05
0@
#132500
1!
15
1@
1Y
1?
1+
#133000
0!
05
0@
#133500
1!
15
1@
1X
0Y
0?
1>
0+
1*
#134000
0!
05
0@
#134500
1!
15
1@
1Y
1A
1B
1?
1+
0C
0D
#135000
0!
05
0@
#135500
1!
15
1@
1V
0W
0X
0Y
0?
0A
0B
0>
1C
1D
0=
1E
1F
1<
0+
0*
0)
1(
0E
0F
#136000
0!
05
0@
#136500
1!
15
1@
1Y
1?
1+
#137000
0!
05
0@
#137500
1!
15
1@
1X
0Y
0?
1>
0+
1*
#138000
0!
05
0@
#138500
1!
15
1@
1Y
1A
1B
1?
1+
#139000
0!
05
0@
#139500
1!
15
1@
1W
0X
0Y
0?
0A
0B
0>
0C
0D
1=
0+
0*
1)
1E
1F
1C
1D
0E
0F
#140000
0!
05
0@
#140500
1!
15
1@
1Y
1?
1+
#141000
0!
05
0@
#141500
1!
15
1@
1X
0Y
0?
1>
0+
1*
#142000
0!
05
0@
#142500
1!
15
1@
1Y
1A
1B
1?
1+
0C
0D
1E
1F
#143000
0!
05
0@
#143500
1!
15
1@
1U
0V
0W
0X
0Y
0?
0A
0B
0>
1C
1D
0=
0E
0F
0<
0G
0H
1;
0+
0*
0)
0(
1'
1G
1H
#144000
0!
05
0@
#144500
1!
15
1@
1Y
1?
1+
#145000
0!
05
0@
#145500
1!
15
1@
1X
0Y
0?
1>
0+
1*
#146000
0!
05
0@
#146500
1!
15
1@
1Y
1A
1B
1?
1+
#147000
0!
05
0@
#147500
1!
15
1@
1W
0X
0Y
0?
0A
0B
0>
0C
0D
1=
0+
0*
1)
1C
1D
#148000
0!
05
0@
#148500
1!
15
1@
1Y
1?
1+
#149000
0!
05
0@
#149500
1!
15
1@
1X
0Y
0?
1>
0+
1*
#150000
0!
05
0@
#150500
1!
15
1@
1Y
1A
1B
1?
1+
0C
0D
#151000
0!
05
0@
#151500
1!
15
1@
1V
0W
0X
0Y
0?
0A
0B
0>
1C
1D
0=
1E
1F
1<
0+
0*
0)
1(
0G
0H
0E
0F
1G
1H
#152000
0!
05
0@
#152500
1!
15
1@
1Y
1?
1+
#153000
0!
05
0@
#153500
1!
15
1@
1X
0Y
0?
1>
0+
1*
#154000
0!
05
0@
#154500
1!
15
1@
1Y
1A
1B
1?
1+
#155000
0!
05
0@
#155500
1!
15
1@
1W
0X
0Y
0?
0A
0B
0>
0C
0D
1=
0+
0*
1)
1E
1F
1C
1D
0E
0F
0G
0H
1G
1H
#156000
0!
05
0@
#156500
1!
15
1@
1Y
1?
1+
#157000
0!
05
0@
#157500
1!
15
1@
1X
0Y
0?
1>
0+
1*
#158000
0!
05
0@
#158500
1!
15
1@
1Y
1A
1B
1?
1+
0C
0D
1E
1F
0G
0H
#159000
0!
05
0@
#159500
1!
15
1@
1T
0U
0V
0W
0X
0Y
0?
0A
0B
0>
1C
1D
0=
0E
0F
0<
1G
1H
0;
1I
1:
0+
0*
0)
0(
0'
1&
0I
#160000
0!
05
0@
#160500
1!
15
1@
1Y
1?
1+
#161000
0!
05
0@
#161500
1!
15
1@
1X
0Y
0?
1>
0+
1*
#162000
0!
05
0@
#162500
1!
15
1@
1Y
1A
1B
1?
1+
#163000
0!
05
0@
#163500
1!
15
1@
1W
0X
0Y
0?
0A
0B
0>
0C
0D
1=
0+
0*
1)
1C
1D
#164000
0!
05
0@
#164500
1!
15
1@
1Y
1?
1+
#165000
0!
05
0@
#165500
1!
15
1@
1X
0Y
0?
1>
0+
1*
#166000
0!
05
0@
#166500
1!
15
1@
1Y
1A
1B
1?
1+
0C
0D
#167000
0!
05
0@
#167500
1!
15
1@
1V
0W
0X
0Y
0?
0A
0B
0>
1C
1D
0=
1E
1F
1<
0+
0*
0)
1(
0E
0F
#168000
0!
05
0@
#168500
1!
15
1@
1Y
1?
1+
#169000
0!
05
0@
#169500
1!
15
1@
1X
0Y
0?
1>
0+
1*
#170000
0!
05
0@
#170500
1!
15
1@
1Y
1A
1B
1?
1+
#171000
0!
05
0@
#171500
1!
15
1@
1W
0X
0Y
0?
0A
0B
0>
0C
0D
1=
0+
0*
1)
1E
1F
1C
1D
0E
0F
#172000
0!
05
0@
#172500
1!
15
1@
1Y
1?
1+
#173000
0!
05
0@
#173500
1!
15
1@
1X
0Y
0?
1>
0+
1*
#174000
0!
05
0@
#174500
1!
15
1@
1Y
1A
1B
1?
1+
0C
0D
1E
1F
#175000
0!
05
0@
#175500
1!
15
1@
1U
0V
0W
0X
0Y
0?
0A
0B
0>
1C
1D
0=
0E
0F
0<
0G
0H
1;
0+
0*
0)
0(
1'
1I
1G
1H
0I
#176000
0!
05
0@
#176500
1!
15
1@
1Y
1?
1+
#177000
0!
05
0@
#177500
1!
15
1@
1X
0Y
0?
1>
0+
1*
#178000
0!
05
0@
#178500
1!
15
1@
1Y
1A
1B
1?
1+
#179000
0!
05
0@
#179500
1!
15
1@
1W
0X
0Y
0?
0A
0B
0>
0C
0D
1=
0+
0*
1)
1C
1D
#180000
0!
05
0@
#180500
1!
15
1@
1Y
1?
1+
#181000
0!
05
0@
#181500
1!
15
1@
1X
0Y
0?
1>
0+
1*
#182000
0!
05
0@
#182500
1!
15
1@
1Y
1A
1B
1?
1+
0C
0D
#183000
0!
05
0@
#183500
1!
15
1@
1V
0W
0X
0Y
0?
0A
0B
0>
1C
1D
0=
1E
1F
1<
0+
0*
0)
1(
0G
0H
0E
0F
1G
1H
1I
0I
#184000
0!
05
0@
#184500
1!
15
1@
1Y
1?
1+
#185000
0!
05
0@
#185500
1!
15
1@
1X
0Y
0?
1>
0+
1*
#186000
0!
05
0@
#186500
1!
15
1@
1Y
1A
1B
1?
1+
#187000
0!
05
0@
#187500
1!
15
1@
1W
0X
0Y
0?
0A
0B
0>
0C
0D
1=
0+
0*
1)
1E
1F
1C
1D
0E
0F
0G
0H
1I
1G
1H
0I
#188000
0!
05
0@
#188500
1!
15
1@
1Y
1?
1+
#189000
0!
05
0@
#189500
1!
15
1@
1X
0Y
0?
1>
0+
1*
#190000
0!
05
0@
#190500
1!
15
1@
1Y
1A
1B
1?
1+
0C
0D
1E
1F
0G
0H
1I
#191000
0!
05
0@
#191500
1!
15
1@
1S
0T
0U
0V
0W
0X
0Y
0?
0A
0B
0>
1C
1D
0=
0E
0F
0<
1G
1H
0;
0I
0:
0K
19
0+
0*
0)
0(
0'
0&
1%
1M
#192000
0!
05
0@
#192500
1!
15
1@
1Y
1?
1+
#193000
0!
05
0@
#193500
1!
15
1@
1X
0Y
0?
1>
0+
1*
#194000
0!
05
0@
#194500
1!
15
1@
1Y
1A
1B
1?
1+
#195000
0!
05
0@
#195500
1!
15
1@
1W
0X
0Y
0?
0A
0B
0>
0C
0D
1=
0+
0*
1)
1C
1D
#196000
0!
05
0@
#196500
1!
15
1@
1Y
1?
1+
#197000
0!
05
0@
#197500
1!
15
1@
1X
0Y
0?
1>
0+
1*
#198000
0!
05
0@
#198500
1!
15
1@
1Y
1A
1B
1?
1+
0C
0D
#199000
0!
05
0@
#199500
1!
15
1@
1V
0W
0X
0Y
0?
0A
0B
0>
1C
1D
0=
1E
1F
1<
0+
0*
0)
1(
0E
0F
#200000
0!
05
0@
#200500
1!
15
1@
1Y
1?
1+
#201000
0!
05
0@
#201500
1!
15
1@
1X
0Y
0?
1>
0+
1*
#202000
0!
05
0@
#202500
1!
15
1@
1Y
1A
1B
1?
1+
#203000
0!
05
0@
#203500
1!
15
1@
1W
0X
0Y
0?
0A
0B
0>
0C
0D
1=
0+
0*
1)
1E
1F
1C
1D
0E
0F
#204000
0!
05
0@
#204500
1!
15
1@
1Y
1?
1+
#205000
0!
05
0@
#205500
1!
15
1@
1X
0Y
0?
1>
0+
1*
#206000
0!
05
0@
#206500
1!
15
1@
1Y
1A
1B
1?
1+
0C
0D
1E
1F
#207000
0!
05
0@
#207500
1!
15
1@
1U
0V
0W
0X
0Y
0?
0A
0B
0>
1C
1D
0=
0E
0F
0<
0G
0H
1;
0+
0*
0)
0(
1'
1G
1H
#208000
0!
05
0@
#208500
1!
15
1@
1Y
1?
1+
#209000
0!
05
0@
#209500
1!
15
1@
1X
0Y
0?
1>
0+
1*
#210000
0!
05
0@
#210500
1!
15
1@
1Y
1A
1B
1?
1+
#211000
0!
05
0@
#211500
1!
15
1@
1W
0X
0Y
0?
0A
0B
0>
0C
0D
1=
0+
0*
1)
1C
1D
#212000
0!
05
0@
#212500
1!
15
1@
1Y
1?
1+
#213000
0!
05
0@
#213500
1!
15
1@
1X
0Y
0?
1>
0+
1*
#214000
0!
05
0@
#214500
1!
15
1@
1Y
1A
1B
1?
1+
0C
0D
#215000
0!
05
0@
#215500
1!
15
1@
1V
0W
0X
0Y
0?
0A
0B
0>
1C
1D
0=
1E
1F
1<
0+
0*
0)
1(
0G
0H
0E
0F
1G
1H
#216000
0!
05
0@
#216500
1!
15
1@
1Y
1?
1+
#217000
0!
05
0@
#217500
1!
15
1@
1X
0Y
0?
1>
0+
1*
#218000
0!
05
0@
#218500
1!
15
1@
1Y
1A
1B
1?
1+
#219000
0!
05
0@
#219500
1!
15
1@
1W
0X
0Y
0?
0A
0B
0>
0C
0D
1=
0+
0*
1)
1E
1F
1C
1D
0E
0F
0G
0H
1G
1H
#220000
0!
05
0@
#220500
1!
15
1@
1Y
1?
1+
#221000
0!
05
0@
#221500
1!
15
1@
1X
0Y
0?
1>
0+
1*
#222000
0!
05
0@
#222500
1!
15
1@
1Y
1A
1B
1?
1+
0C
0D
1E
1F
0G
0H
#223000
0!
05
0@
#223500
1!
15
1@
1T
0U
0V
0W
0X
0Y
0?
0A
0B
0>
1C
1D
0=
0E
0F
0<
1G
1H
0;
1I
1:
0+
0*
0)
0(
0'
1&
0I
#224000
0!
05
0@
#224500
1!
15
1@
1Y
1?
1+
#225000
0!
05
0@
#225500
1!
15
1@
1X
0Y
0?
1>
0+
1*
#226000
0!
05
0@
#226500
1!
15
1@
1Y
1A
1B
1?
1+
#227000
0!
05
0@
#227500
1!
15
1@
1W
0X
0Y
0?
0A
0B
0>
0C
0D
1=
0+
0*
1)
1C
1D
#228000
0!
05
0@
#228500
1!
15
1@
1Y
1?
1+
#229000
0!
05
0@
#229500
1!
15
1@
1X
0Y
0?
1>
0+
1*
#230000
0!
05
0@
#230500
1!
15
1@
1Y
1A
1B
1?
1+
0C
0D
#231000
0!
05
0@
#231500
1!
15
1@
1V
0W
0X
0Y
0?
0A
0B
0>
1C
1D
0=
1E
1F
1<
0+
0*
0)
1(
0E
0F
#232000
0!
05
0@
#232500
1!
15
1@
1Y
1?
1+
#233000
0!
05
0@
#233500
1!
15
1@
1X
0Y
0?
1>
0+
1*
#234000
0!
05
0@
#234500
1!
15
1@
1Y
1A
1B
1?
1+
#235000
0!
05
0@
#235500
1!
15
1@
1W
0X
0Y
0?
0A
0B
0>
0C
0D
1=
0+
0*
1)
1E
1F
1C
1D
0E
0F
#236000
0!
05
0@
#236500
1!
15
1@
1Y
1?
1+
#237000
0!
05
0@
#237500
1!
15
1@
1X
0Y
0?
1>
0+
1*
#238000
0!
05
0@
#238500
1!
15
1@
1Y
1A
1B
1?
1+
0C
0D
1E
1F
#239000
0!
05
0@
#239500
1!
15
1@
1U
0V
0W
0X
0Y
0?
0A
0B
0>
1C
1D
0=
0E
0F
0<
0G
0H
1;
0+
0*
0)
0(
1'
1I
1G
1H
0I
#240000
0!
05
0@
#240500
1!
15
1@
1Y
1?
1+
#241000
0!
05
0@
#241500
1!
15
1@
1X
0Y
0?
1>
0+
1*
#242000
0!
05
0@
#242500
1!
15
1@
1Y
1A
1B
1?
1+
#243000
0!
05
0@
#243500
1!
15
1@
1W
0X
0Y
0?
0A
0B
0>
0C
0D
1=
0+
0*
1)
1C
1D
#244000
0!
05
0@
#244500
1!
15
1@
1Y
1?
1+
#245000
0!
05
0@
#245500
1!
15
1@
1X
0Y
0?
1>
0+
1*
#246000
0!
05
0@
#246500
1!
15
1@
1Y
1A
1B
1?
1+
0C
0D
#247000
0!
05
0@
#247500
1!
15
1@
1V
0W
0X
0Y
0?
0A
0B
0>
1C
1D
0=
1E
1F
1<
0+
0*
0)
1(
0G
0H
0E
0F
1G
1H
1I
0I
#248000
0!
05
0@
#248500
1!
15
1@
1Y
1?
1+
#249000
0!
05
0@
#249500
1!
15
1@
1X
0Y
0?
1>
0+
1*
#250000
0!
05
0@
#250500
1!
15
1@
1Y
1A
1B
1?
1+
#251000
0!
05
0@
#251500
1!
15
1@
1W
0X
0Y
0?
0A
0B
0>
0C
0D
1=
0+
0*
1)
1E
1F
1C
1D
0E
0F
0G
0H
1I
1G
1H
0I
#252000
0!
05
0@
#252500
1!
15
1@
1Y
1?
1+
#253000
0!
05
0@
#253500
1!
15
1@
1X
0Y
0?
1>
0+
1*
#254000
0!
05
0@
#254500
1!
15
1@
1Y
1A
1B
1?
1+
0C
0D
1E
1F
0G
0H
1I
#255000
0!
05
0@
