counter64/simulation/qsim/counter64.msim.vcd
$comment
	File created using the following command:
		vcd file counter64.msim.vcd -direction
$end
$date
	Wed Jun 07 15:35:16 2023
$end
$version
	ModelSim Version 10.5b
$end
$timescale
	1ps
$end

$scope module counter64_vhd_vec_tst $end
$var wire 1 ! clk $end
$var wire 1 " count [5] $end
$var wire 1 # count [4] $end
$var wire 1 $ count [3] $end
$var wire 1 % count [2] $end
$var wire 1 & count [1] $end
$var wire 1 ' count [0] $end
$var wire 1 ( enable $end
$var wire 1 ) reset $end

$scope module i1 $end
$var wire 1 * gnd $end
$var wire 1 + vcc $end
$var wire 1 , unknown $end
$var wire 1 - devoe $end
$var wire 1 . devclrn $end
$var wire 1 / devpor $end
$var wire 1 0 ww_devoe $end
$var wire 1 1 ww_devclrn $end
$var wire 1 2 ww_devpor $end
$var wire 1 3 ww_clk $end
$var wire 1 4 ww_reset $end
$var wire 1 5 ww_enable $end
$var wire 1 6 ww_count [5] $end
$var wire 1 7 ww_count [4] $end
$var wire 1 8 ww_count [3] $end
$var wire 1 9 ww_count [2] $end
$var wire 1 : ww_count [1] $end
$var wire 1 ; ww_count [0] $end
$var wire 1 < \clk~combout\ $end
$var wire 1 = \reset~combout\ $end
$var wire 1 > \enable~combout\ $end
$var wire 1 ? \temp_next[0]~14_combout\ $end
$var wire 1 @ \temp_next[0]~1\ $end
$var wire 1 A \temp_next[0]~1COUT1_16\ $end
$var wire 1 B \temp_next[1]~3\ $end
$var wire 1 C \temp_next[1]~3COUT1_17\ $end
$var wire 1 D \gen:2:U1|Q~regout\ $end
$var wire 1 E \temp_next[2]~5\ $end
$var wire 1 F \temp_next[2]~5COUT1_18\ $end
$var wire 1 G \gen:3:U1|Q~regout\ $end
$var wire 1 H \temp_next[3]~7\ $end
$var wire 1 I \temp_next[0]~12\ $end
$var wire 1 J \gen:4:U1|Q~regout\ $end
$var wire 1 K \temp_next[4]~9\ $end
$var wire 1 L \temp_next[4]~9COUT1_19\ $end
$var wire 1 M \gen:5:U1|Q~regout\ $end
$var wire 1 N \temp_next[0]~13\ $end
$var wire 1 O \gen:1:U1|Q~regout\ $end
$var wire 1 P \gen:0:U1|Q~regout\ $end
$var wire 1 Q temp_next [5] $end
$var wire 1 R temp_next [4] $end
$var wire 1 S temp_next [3] $end
$var wire 1 T temp_next [2] $end
$var wire 1 U temp_next [1] $end
$var wire 1 V temp_next [0] $end
$upscope $end
$upscope $end
$enddefinitions $end
#0
$dumpvars
0!
1(
0)
0*
1+
x,
1-
1.
1/
10
11
12
03
04
15
0<
0=
1>
1?
0@
0A
1B
1C
0D
0E
0F
0G
1H
1I
0J
0K
0L
0M
0N
0O
0P
06
07
08
09
0:
0;
0Q
0R
0S
0T
0U
0V
0"
0#
0$
0%
0&
0'
$end
#5000
1!
13
1<
1V
#10000
0!
1)
03
14
1=
0<
1N
#15000
1!
13
1<
1P
0V
1@
1A
1;
1'
#20000
0!
0)
03
04
0=
0<
0N
#25000
1!
13
1<
0P
1U
0@
0A
0;
0'
#30000
0!
03
0<
#35000
1!
13
1<
1O
0U
1V
1:
1&
#40000
0!
03
0<
#45000
1!
13
1<
0O
1P
1U
1@
1A
1;
0:
1'
0&
#50000
0!
03
0<
#55000
1!
13
1<
1O
0V
0B
0C
1:
1&
#60000
0!
03
0<
#65000
1!
13
1<
0P
1T
0U
0@
0A
0;
0'
1B
1C
#70000
0!
03
0<
#75000
1!
13
1<
0O
1D
0T
1U
1V
19
0:
0&
1%
#80000
0!
03
0<
#85000
1!
13
1<
1O
1P
0D
1T
0U
09
1@
1A
1;
1:
1'
1&
0%
0B
0C
#90000
0!
03
0<
#95000
1!
13
1<
0O
1D
0V
1E
1F
19
1B
1C
0:
0&
1%
0E
0F
#100000
0!
1)
03
14
1=
0<
1N
#105000
1!
13
1<
0P
0T
0@
0A
0;
0'
#110000
0!
03
0<
#115000
1!
13
1<
0D
09
0%
#120000
0!
03
0<
#125000
1!
13
1<
#130000
0!
03
0<
#135000
1!
13
1<
#140000
0!
03
0<
#145000
1!
13
1<
#150000
0!
03
0<
#155000
1!
13
1<
#160000
0!
03
0<
#165000
1!
13
1<
#170000
0!
03
0<
#175000
1!
13
1<
#180000
0!
03
0<
#185000
1!
13
1<
#190000
0!
03
0<
#195000
1!
13
1<
#200000
0!
03
0<
#205000
1!
13
1<
#210000
0!
03
0<
#215000
1!
13
1<
#220000
0!
03
0<
#225000
1!
13
1<
#230000
0!
03
0<
#235000
1!
13
1<
#240000
0!
0)
03
04
0=
0<
0N
#245000
1!
13
1<
1V
#250000
0!
03
0<
#255000
1!
13
1<
1P
1@
1A
1;
1'
#260000
0!
03
0<
#265000
1!
13
1<
1U
0V
#270000
0!
03
0<
#275000
1!
13
1<
1O
0P
0@
0A
0;
0B
0C
1:
0'
1&
1B
1C
#280000
0!
03
0<
#285000
1!
13
1<
1V
#290000
0!
03
0<
#295000
1!
13
1<
1P
1@
1A
1;
1'
0B
0C
#300000
0!
03
0<
#305000
1!
13
1<
1T
0U
0V
#310000
0!
03
0<
#315000
1!
13
1<
0O
0P
1D
1E
1F
19
0@
0A
0;
1B
1C
0:
0'
0&
1%
0E
0F
#320000
0!
03
0<
#325000
1!
13
1<
1V
#330000
0!
03
0<
#335000
1!
13
1<
1P
1@
1A
1;
1'
#340000
0!
03
0<
#345000
1!
13
1<
1U
0V
#350000
0!
03
0<
#355000
1!
13
1<
1O
0P
0@
0A
0;
0B
0C
1:
0'
1&
1E
1F
1B
1C
0E
0F
#360000
0!
03
0<
#365000
1!
13
1<
1V
#370000
0!
03
0<
#375000
1!
13
1<
1P
1@
1A
1;
1'
0B
0C
1E
1F
#380000
0!
03
0<
#385000
1!
13
1<
1S
0T
0U
0V
#390000
0!
1)
03
14
1=
0<
1N
#395000
1!
13
1<
0O
0P
1G
0S
0D
0E
0F
09
0H
18
0@
0A
0;
1B
1C
0:
0'
0&
0%
1$
1H
#400000
0!
03
0<
#405000
1!
13
1<
0G
08
0$
#410000
0!
0)
03
04
0=
0<
0N
#415000
1!
13
1<
1V
#420000
0!
03
0<
#425000
1!
13
1<
1P
1@
1A
1;
1'
#430000
0!
03
0<
#435000
1!
13
1<
1U
0V
#440000
0!
03
0<
#445000
1!
13
1<
1O
0P
0@
0A
0;
0B
0C
1:
0'
1&
1B
1C
#450000
0!
03
0<
#455000
1!
13
1<
1V
#460000
0!
03
0<
#465000
1!
13
1<
1P
1@
1A
1;
1'
0B
0C
#470000
0!
03
0<
#475000
1!
13
1<
1T
0U
0V
#480000
0!
03
0<
#485000
1!
13
1<
0O
0P
1D
1E
1F
19
0@
0A
0;
1B
1C
0:
0'
0&
1%
0E
0F
#490000
0!
03
0<
#495000
1!
13
1<
1V
#500000
0!
03
0<
#505000
1!
13
1<
1P
1@
1A
1;
1'
#510000
0!
03
0<
#515000
1!
13
1<
1U
0V
#520000
0!
03
0<
#525000
1!
13
1<
1O
0P
0@
0A
0;
0B
0C
1:
0'
1&
1E
1F
1B
1C
0E
0F
#530000
0!
1)
03
14
1=
0<
1N
#535000
1!
13
1<
0T
0U
#540000
0!
03
0<
#545000
1!
13
1<
0O
0D
09
0:
0&
0%
#550000
0!
0)
03
04
0=
0<
0N
#555000
1!
13
1<
1V
#560000
0!
03
0<
#565000
1!
13
1<
1P
1@
1A
1;
1'
#570000
0!
03
0<
#575000
1!
13
1<
1U
0V
#580000
0!
03
0<
#585000
1!
13
1<
1O
0P
0@
0A
0;
0B
0C
1:
0'
1&
1B
1C
#590000
0!
03
0<
#595000
1!
13
1<
1V
#600000
0!
03
0<
#605000
1!
13
1<
1P
1@
1A
1;
1'
0B
0C
#610000
0!
03
0<
#615000
1!
13
1<
1T
0U
0V
#620000
0!
03
0<
#625000
1!
13
1<
0O
0P
1D
1E
1F
19
0@
0A
0;
1B
1C
0:
0'
0&
1%
0E
0F
#630000
0!
03
0<
#635000
1!
13
1<
1V
#640000
0!
03
0<
#645000
1!
13
1<
1P
1@
1A
1;
1'
#650000
0!
03
0<
#655000
1!
13
1<
1U
0V
#660000
0!
03
0<
#665000
1!
13
1<
1O
0P
0@
0A
0;
0B
0C
1:
0'
1&
1E
1F
1B
1C
0E
0F
#670000
0!
03
0<
#675000
1!
13
1<
1V
#680000
0!
03
0<
#685000
1!
13
1<
1P
1@
1A
1;
1'
0B
0C
1E
1F
#690000
0!
03
0<
#695000
1!
13
1<
1S
0T
0U
0V
#700000
0!
03
0<
#705000
1!
13
1<
0O
0P
1G
0D
0E
0F
09
0H
18
0@
0A
0;
1B
1C
0:
0'
0&
0%
1$
1H
#710000
0!
03
0<
#715000
1!
13
1<
1V
#720000
0!
03
0<
#725000
1!
13
1<
1P
1@
1A
1;
1'
#730000
0!
03
0<
#735000
1!
13
1<
1U
0V
#740000
0!
03
0<
#745000
1!
13
1<
1O
0P
0@
0A
0;
0B
0C
1:
0'
1&
1B
1C
#750000
0!
03
0<
#755000
1!
13
1<
1V
#760000
0!
03
0<
#765000
1!
13
1<
1P
1@
1A
1;
1'
0B
0C
#770000
0!
03
0<
#775000
1!
13
1<
1T
0U
0V
#780000
0!
03
0<
#785000
1!
13
1<
0O
0P
1D
1E
1F
19
0@
0A
0;
1B
1C
0:
0'
0&
1%
0E
0F
0H
1H
#790000
0!
03
0<
#795000
1!
13
1<
1V
#800000
0!
03
0<
#805000
1!
13
1<
1P
1@
1A
1;
1'
#810000
0!
03
0<
#815000
1!
13
1<
1U
0V
#820000
0!
03
0<
#825000
1!
13
1<
1O
0P
0@
0A
0;
0B
0C
1:
0'
1&
1E
1F
1B
1C
0E
0F
0H
1H
#830000
0!
03
0<
#835000
1!
13
1<
1V
#840000
0!
03
0<
#845000
1!
13
1<
1P
0I
1@
1A
1;
1'
0B
0C
1E
1F
0H
#850000
0!
03
0<
#855000
1!
13
1<
1R
0S
0T
0U
0V
#860000
0!
03
0<
#865000
1!
13
1<
0O
1J
0P
0G
0D
1I
0E
0F
09
1H
08
0@
0A
0;
1K
17
1B
1C
0:
0'
0&
0%
0$
1#
#870000
0!
03
0<
#875000
1!
13
1<
1V
#880000
0!
03
0<
#885000
1!
13
1<
1P
1@
1A
1;
1'
#890000
0!
03
0<
#895000
1!
13
1<
1U
0V
#900000
0!
03
0<
#905000
1!
13
1<
1O
0P
0@
0A
0;
0B
0C
1:
0'
1&
1B
1C
#910000
0!
03
0<
#915000
1!
13
1<
1V
#920000
0!
03
0<
#925000
1!
13
1<
1P
1@
1A
1;
1'
0B
0C
#930000
0!
03
0<
#935000
1!
13
1<
1T
0U
0V
#940000
0!
03
0<
#945000
1!
13
1<
0O
0P
1D
1E
1F
19
0@
0A
0;
1B
1C
0:
0'
0&
1%
0E
0F
#950000
0!
03
0<
#955000
1!
13
1<
1V
#960000
0!
03
0<
#965000
1!
13
1<
1P
1@
1A
1;
1'
#970000
0!
03
0<
#975000
1!
13
1<
1U
0V
#980000
0!
03
0<
#985000
1!
13
1<
1O
0P
0@
0A
0;
0B
0C
1:
0'
1&
1E
1F
1B
1C
0E
0F
#990000
0!
03
0<
#995000
1!
13
1<
1V
