manualAdder 2/manualAdder 2/simulation/qsim/manualAdder.msim.vcd
$comment
	File created using the following command:
		vcd file manualAdder.msim.vcd -direction
$end
$date
	Fri May 12 11:57:35 2023
$end
$version
	ModelSim Version 10.5b
$end
$timescale
	1ps
$end

$scope module manualadder_vhd_vec_tst $end
$var wire 1 ! clk $end
$var wire 1 " H [6] $end
$var wire 1 # H [5] $end
$var wire 1 $ H [4] $end
$var wire 1 % H [3] $end
$var wire 1 & H [2] $end
$var wire 1 ' H [1] $end
$var wire 1 ( H [0] $end
$var wire 1 ) L [6] $end
$var wire 1 * L [5] $end
$var wire 1 + L [4] $end
$var wire 1 , L [3] $end
$var wire 1 - L [2] $end
$var wire 1 . L [1] $end
$var wire 1 / L [0] $end
$var wire 1 0 rst $end

$scope module i1 $end
$var wire 1 1 gnd $end
$var wire 1 2 vcc $end
$var wire 1 3 unknown $end
$var wire 1 4 devoe $end
$var wire 1 5 devclrn $end
$var wire 1 6 devpor $end
$var wire 1 7 ww_devoe $end
$var wire 1 8 ww_devclrn $end
$var wire 1 9 ww_devpor $end
$var wire 1 : ww_clk $end
$var wire 1 ; ww_rst $end
$var wire 1 < ww_H [6] $end
$var wire 1 = ww_H [5] $end
$var wire 1 > ww_H [4] $end
$var wire 1 ? ww_H [3] $end
$var wire 1 @ ww_H [2] $end
$var wire 1 A ww_H [1] $end
$var wire 1 B ww_H [0] $end
$var wire 1 C ww_L [6] $end
$var wire 1 D ww_L [5] $end
$var wire 1 E ww_L [4] $end
$var wire 1 F ww_L [3] $end
$var wire 1 G ww_L [2] $end
$var wire 1 H ww_L [1] $end
$var wire 1 I ww_L [0] $end
$var wire 1 J \clk~combout\ $end
$var wire 1 K \d2|Q~regout\ $end
$var wire 1 L \rst~combout\ $end
$var wire 1 M \d4|not_Q~regout\ $end
$var wire 1 N \d5|not_Q~regout\ $end
$var wire 1 O \d6|Q~regout\ $end
$var wire 1 P \d5|Q~regout\ $end
$var wire 1 Q \d3|Q~regout\ $end
$var wire 1 R \d1|Q~regout\ $end
$var wire 1 S \Equal0~1_combout\ $end
$var wire 1 T \reset~combout\ $end
$var wire 1 U \d1|not_Q~regout\ $end
$var wire 1 V \d2|not_Q~regout\ $end
$var wire 1 W \d3|not_Q~regout\ $end
$var wire 1 X \d4|Q~regout\ $end
$var wire 1 Y \out1|h1[0]~1_combout\ $end
$var wire 1 Z \out1|h1[0]~2_combout\ $end
$var wire 1 [ \out1|h1[3]~0_combout\ $end
$var wire 1 \ \out1|comb~7_combout\ $end
$var wire 1 ] \out1|comb~8_combout\ $end
$var wire 1 ^ \out1|comb~4_combout\ $end
$var wire 1 _ \Equal0~0_combout\ $end
$var wire 1 ` \out1|comb~5_combout\ $end
$var wire 1 a \out1|comb~6_combout\ $end
$var wire 1 b \out1|n1|Mux6~0_combout\ $end
$var wire 1 c \out1|n1|Mux5~0_combout\ $end
$var wire 1 d \out1|n1|Mux4~0_combout\ $end
$var wire 1 e \out1|n1|Mux3~0_combout\ $end
$var wire 1 f \out1|n1|Mux2~0_combout\ $end
$var wire 1 g \out1|n1|Mux1~0_combout\ $end
$var wire 1 h \out1|n1|Mux0~0_combout\ $end
$var wire 1 i \out1|t1[2]~3_combout\ $end
$var wire 1 j \out1|t1[2]~2_combout\ $end
$var wire 1 k \out1|t1[2]~4_combout\ $end
$var wire 1 l \out1|t1[3]~5_combout\ $end
$var wire 1 m \out1|t1[3]~6_combout\ $end
$var wire 1 n \out1|t1[3]~7_combout\ $end
$var wire 1 o \out1|t1[1]~8_combout\ $end
$var wire 1 p \out1|n2|Mux6~0_combout\ $end
$var wire 1 q \out1|n2|Mux5~0_combout\ $end
$var wire 1 r \out1|n2|Mux4~0_combout\ $end
$var wire 1 s \out1|n2|Mux3~0_combout\ $end
$var wire 1 t \out1|n2|Mux2~0_combout\ $end
$var wire 1 u \out1|n2|Mux1~0_combout\ $end
$var wire 1 v \out1|n2|Mux0~0_combout\ $end
$var wire 1 w \out1|h1\ [3] $end
$var wire 1 x \out1|h1\ [2] $end
$var wire 1 y \out1|h1\ [1] $end
$var wire 1 z \out1|h1\ [0] $end
$var wire 1 { \out1|t1\ [5] $end
$var wire 1 | \out1|t1\ [4] $end
$var wire 1 } \out1|t1\ [3] $end
$var wire 1 ~ \out1|t1\ [2] $end
$var wire 1 !! \out1|t1\ [1] $end
$var wire 1 "! \out1|t1\ [0] $end
$var wire 1 #! \d5|ALT_INV_not_Q~regout\ $end
$var wire 1 $! \d4|ALT_INV_not_Q~regout\ $end
$var wire 1 %! \d3|ALT_INV_not_Q~regout\ $end
$var wire 1 &! \d2|ALT_INV_not_Q~regout\ $end
$var wire 1 '! \d1|ALT_INV_not_Q~regout\ $end
$var wire 1 (! \out1|n2|ALT_INV_Mux0~0_combout\ $end
$var wire 1 )! \out1|n2|ALT_INV_Mux1~0_combout\ $end
$var wire 1 *! \out1|n2|ALT_INV_Mux2~0_combout\ $end
$var wire 1 +! \out1|n2|ALT_INV_Mux3~0_combout\ $end
$var wire 1 ,! \out1|n2|ALT_INV_Mux4~0_combout\ $end
$var wire 1 -! \out1|n2|ALT_INV_Mux5~0_combout\ $end
$var wire 1 .! \out1|n1|ALT_INV_Mux2~0_combout\ $end
$var wire 1 /! \out1|n1|ALT_INV_Mux4~0_combout\ $end
$var wire 1 0! \out1|n1|ALT_INV_Mux5~0_combout\ $end
$upscope $end
$upscope $end
$enddefinitions $end
#0
$dumpvars
0!
00
01
12
x3
14
15
16
17
18
19
0:
0;
0J
0K
0L
0M
0N
0O
0P
0Q
0R
0S
0T
0U
0V
0W
0X
0Y
0Z
1[
1\
0]
0^
0_
1`
0a
0b
0c
0d
1e
0f
1g
1h
0i
0j
0k
0l
0m
0n
1o
0p
0q
0r
0s
0t
0u
0v
1#!
1$!
1%!
1&!
1'!
1(!
1)!
1*!
1+!
1,!
1-!
1.!
1/!
10!
1<
1=
1>
1?
1@
1A
0B
1C
1D
1E
1F
1G
1H
0I
xw
0x
0y
0z
x{
x|
0}
0~
0!!
0"!
1"
1#
1$
1%
1&
1'
0(
1)
1*
1+
1,
1-
1.
0/
$end
#5000
1!
1:
1J
1U
1R
0'!
1"!
1q
1r
1s
1v
0(!
0+!
0,!
0-!
0H
0G
0F
0C
0.
0-
0,
0)
#10000
0!
0:
0J
#15000
1!
1:
1J
0U
0R
1'!
0"!
1V
1K
0&!
0q
0r
0s
0v
1l
0o
1(!
1+!
1,!
1-!
1H
1G
1F
1C
1!!
1.
1-
1,
1)
1p
1q
1t
0*!
0-!
1I
0H
0E
1/
0.
0+
#20000
0!
0:
0J
#25000
1!
1:
1J
1U
1R
0'!
1"!
1r
0t
1*!
0,!
0G
1E
0-
1+
#30000
0!
0:
0J
#35000
1!
1:
1J
0U
0R
1'!
0"!
0V
0K
1&!
0r
1t
0l
1o
0*!
1,!
1W
1Q
0%!
1G
0E
0!!
1j
1-
0+
0p
0q
0t
1k
1*!
1-!
0I
1H
1E
1~
0/
1.
1+
1p
1r
1s
1v
0(!
0+!
0,!
1I
0G
0F
0C
1/
0-
0,
0)
#40000
0!
0:
0J
#45000
1!
1:
1J
1U
1R
0'!
1"!
0s
1u
0v
1(!
0)!
1+!
1F
0D
1C
1,
0*
1)
#50000
0!
0:
0J
#55000
1!
1:
1J
0U
0R
1'!
0"!
1V
1K
0&!
1s
0u
1v
1i
0j
0o
0(!
1)!
0+!
0F
1D
0C
1!!
0,
1*
0)
0r
0s
1u
0v
1(!
0)!
1+!
1,!
1G
1F
0D
1C
1-
1,
0*
1)
#60000
0!
0:
0J
#65000
1!
1:
1J
1U
1R
0'!
1"!
0p
1q
1r
1s
0u
1)!
0+!
0,!
0-!
0I
0H
0G
0F
1D
0/
0.
0-
0,
1*
#70000
0!
0:
0J
#75000
1!
1:
1J
0U
0R
1'!
0"!
0V
0K
1&!
1p
0q
0r
0s
1u
0i
1j
1o
0)!
1+!
1,!
1-!
1I
0W
0Q
1%!
1H
1G
1F
0D
0!!
1/
0j
1.
1-
1,
0*
1r
1s
0u
1v
1X
1M
0$!
0k
0(!
1)!
0+!
0,!
1Y
1m
0G
0F
1D
0C
0~
1n
0-
0,
1*
0)
0p
0r
0s
0v
1}
1(!
1+!
1,!
0I
1G
1F
1C
1p
0/
1-
1,
1)
1I
1/
#80000
0!
0:
0J
#85000
1!
1:
1J
1U
1R
0'!
1"!
1r
0,!
0G
0-
#90000
0!
0:
0J
#95000
1!
1:
1J
0U
0R
1'!
0"!
1V
1K
0&!
0r
0Y
1Z
0m
0o
1,!
1G
1!!
0n
0\
1]
1o
1-
1z
0}
0!!
1s
0+!
0p
0s
1c
1d
0e
0h
0F
0/!
00!
1+!
0<
0?
0I
0,
0A
0@
1F
0%
0"
0/
0'
0&
1,
#100000
0!
0:
0J
#105000
1!
1:
1J
1U
1R
0'!
1"!
1q
1r
1s
1v
0(!
0+!
0,!
0-!
0H
0G
0F
0C
0.
0-
0,
0)
#110000
0!
0:
0J
#115000
1!
1:
1J
0U
0R
1'!
0"!
0V
0K
1&!
0q
0r
0s
0v
1Y
0Z
1m
0o
1(!
1+!
1,!
1-!
1W
1Q
0%!
1H
1G
1F
1C
1!!
1n
1\
0]
1o
0\
1]
1j
1l
0m
0o
1.
1-
1,
1)
0z
1}
0!!
1p
1q
1t
1!!
0n
1z
0*!
0-!
1I
0q
0t
0c
0d
1e
1h
0H
0E
1c
1d
0e
0h
0}
1s
1/!
10!
1*!
1-!
1/
1<
1?
0+!
0/!
00!
0.
0+
1A
1@
1q
0s
1t
0<
0?
1E
1H
1%
1"
0A
0@
0F
0*!
1+!
0-!
1'
1&
0%
0"
1.
1+
0'
0&
0,
0H
0E
1F
0.
1,
0+
#120000
0!
0:
0J
#125000
1!
1:
1J
1U
1R
0'!
1"!
1r
0t
1*!
0,!
0G
1E
0-
1+
#130000
0!
0:
0J
#135000
1!
1:
1J
0U
0R
1'!
0"!
1V
1K
0&!
0r
1t
0Y
1Z
1i
0j
0l
1o
0*!
1,!
1G
0E
0!!
1k
1-
0+
1~
0p
0q
0t
1*!
1-!
0I
1p
1r
1s
1v
1H
1E
0(!
0+!
0,!
0/
1I
1.
1+
0G
0F
0C
1/
0-
0,
0)
#140000
0!
0:
0J
#145000
1!
1:
1J
1U
1R
0'!
1"!
0s
1u
0v
1(!
0)!
1+!
1F
0D
1C
1,
0*
1)
#150000
0!
0:
0J
#155000
1!
1:
1J
0U
0R
1'!
0"!
0V
0K
1&!
1s
0u
1v
1Y
0Z
0i
1j
1l
0o
0(!
1)!
0+!
0W
0Q
1%!
0F
1D
0C
1!!
0k
1\
0]
0j
0l
1m
1o
0,
1*
0)
0~
0r
0s
1u
0v
0X
0M
1$!
0!!
1n
0z
1(!
0)!
1+!
1,!
0Y
0m
1q
1t
0u
1G
1F
0D
1C
0c
0d
1e
1h
1}
0p
0q
0t
1)!
0*!
0-!
1P
1N
0#!
0n
1*!
1-!
1/!
10!
1-
1,
0*
1)
1Y
1Z
1i
0H
0E
0I
1p
1<
1?
1D
1A
1@
1H
1E
0}
0/
0.
0+
1*
1%
1"
1I
1k
0\
1]
0o
1'
1&
1.
1+
0p
1/
1!!
1z
1~
0I
1c
1d
0e
0h
1p
1u
0/
0)!
0/!
00!
1I
0<
0?
0A
0@
0D
1/
0%
0"
0'
0&
0*
#160000
0!
0:
0J
#165000
1!
1:
1J
1U
1R
0'!
1"!
0p
1q
1r
1s
0u
1)!
0+!
0,!
0-!
0I
0H
0G
0F
1D
0/
0.
0-
0,
1*
#170000
0!
0:
0J
#175000
1!
1:
1J
0U
0R
1'!
0"!
1V
1K
0&!
1p
0q
0r
0s
1u
1j
1l
1o
0)!
1+!
1,!
1-!
1I
1H
1G
1F
0D
0!!
1n
0k
1/
1.
1-
1,
0*
0~
1}
1r
1s
0u
1v
0(!
1)!
0+!
0,!
0r
0s
0v
0G
0F
1D
0C
1(!
1+!
1,!
0-
0,
1*
0)
1C
1F
1G
1-
1,
1)
#180000
0!
0:
0J
#185000
1!
1:
1J
1U
1R
0'!
1"!
1r
0,!
0G
0-
#190000
0!
0:
0J
#195000
1!
1:
1J
0U
0R
1'!
0"!
0V
0K
1&!
0r
0j
0l
0o
1,!
1W
1Q
0%!
1G
1!!
0n
1k
1\
0]
0`
1a
0i
1o
1-
1~
0}
1s
0!!
0k
1y
0z
0+!
0s
1u
0F
1b
0d
1e
1f
1h
0~
1r
1s
0u
1v
0)!
1+!
0(!
1)!
0+!
0,!
0.!
1/!
0,
0D
0p
0r
0s
0v
1<
1?
1B
1F
1@
0>
0G
0F
1D
0C
1(!
1+!
1,!
1,
0*
1(
1%
1"
0I
1&
0$
0-
0,
1*
0)
1C
1F
1G
0/
1-
1,
1)
#200000
0!
0:
0J
#205000
1!
1:
1J
1U
1R
0'!
1"!
1q
1r
1s
1v
0(!
0+!
0,!
0-!
0H
0G
0F
0C
0.
0-
0,
0)
#210000
0!
0:
0J
#215000
1!
1:
1J
0U
0R
1'!
0"!
1V
1K
0&!
0q
0r
0s
0v
0o
1(!
1+!
1,!
1-!
1H
1G
1F
1C
1!!
1.
1-
1,
1)
1p
1q
1t
0*!
0-!
1I
0H
0E
1/
0.
0+
#220000
0!
0:
0J
#225000
1!
1:
1J
1U
1R
0'!
1"!
1r
0t
1*!
0,!
0G
1E
0-
1+
#230000
0!
0:
0J
#235000
1!
1:
1J
0U
0R
1'!
0"!
0V
0K
1&!
0r
1t
1o
0*!
1,!
0W
0Q
1%!
1G
0E
0!!
0\
1]
1`
0a
1i
0o
1-
0+
0p
0q
0t
1X
1M
0$!
1!!
1k
0y
1z
1*!
1-!
0Y
0Z
0`
1a
1m
0I
1H
1E
0b
1d
0e
0f
0h
1~
1p
1q
1t
0/
1y
1\
0]
1o
0*!
0-!
1.!
0/!
1.
1+
1I
0q
0t
1u
0<
0?
0B
0@
1>
0H
0E
0!!
0z
1b
1e
1h
0)!
1*!
1-!
1/
0(
0%
0"
0&
1$
0.
0+
0D
1<
1?
1B
0d
1f
1r
1s
0u
1v
1E
1H
0(!
1)!
0+!
0,!
0.!
1/!
1.
1+
0*
1(
1%
1"
1@
0>
0G
0F
1D
0C
1&
0$
0-
0,
1*
0)
#240000
0!
0:
0J
#245000
1!
1:
1J
1U
1R
0'!
1"!
0s
1u
0v
1(!
0)!
1+!
1F
0D
1C
1,
0*
1)
#250000
0!
0:
0J
#255000
1!
1:
1J
0U
0R
1'!
0"!
1V
1K
0&!
1s
0u
1v
1Y
1j
0m
0o
0(!
1)!
0+!
0F
1D
0C
1!!
0,
1*
0)
0r
0s
1u
0v
1(!
0)!
1+!
1,!
1G
1F
0D
1C
1-
1,
0*
1)
#260000
0!
0:
0J
#265000
1!
1:
1J
1U
1R
0'!
1"!
0p
1q
1r
1s
0u
1)!
0+!
0,!
0-!
0I
0H
0G
0F
1D
0/
0.
0-
0,
1*
#270000
0!
0:
0J
#275000
1!
1:
1J
0U
0R
1'!
0"!
0V
0K
1&!
1p
0q
0r
0s
1u
0Y
0j
1m
1o
0)!
1+!
1,!
1-!
1I
1W
1Q
0%!
1H
1G
1F
0D
0!!
1/
1S
1_
0i
1l
0m
1.
1-
1,
0*
1r
1s
0u
1v
1n
0k
0(!
1)!
0+!
0,!
0G
0F
1D
0C
0~
1}
0-
0,
1*
0)
0r
0s
0v
1(!
1+!
1,!
1G
1F
1C
1-
1,
1)
#280000
0!
0:
0J
#285000
1!
1:
1J
1U
1R
0'!
0S
1"!
1r
0,!
0G
0-
#290000
0!
0:
0J
#295000
1!
1:
1J
0U
0R
1'!
1S
0"!
1V
1K
0&!
0r
1Y
0l
0o
1,!
1G
1!!
0n
0\
1]
1o
1-
1z
0}
0!!
1s
0+!
0p
0s
1d
0f
0F
1.!
0/!
1+!
0I
0,
0@
1>
1F
0/
0&
1$
1,
#300000
0!
0:
0J
#305000
1!
1:
1J
1U
1R
0'!
0S
1"!
1q
1r
1s
1v
0(!
0+!
0,!
0-!
0H
0G
0F
0C
0.
0-
0,
0)
#310000
0!
0:
0J
#315000
1!
1:
1J
0U
0R
1'!
1S
0"!
0V
0K
1&!
0q
0r
0s
0v
0Y
1l
0o
1(!
1+!
1,!
1-!
0W
0Q
1%!
1H
1G
1F
1C
1!!
1n
1\
0]
1o
0S
0_
1i
0l
1m
1.
1-
1,
1)
0z
1}
0!!
1p
1q
1t
0X
0M
1$!
0n
1k
0*!
0-!
1Y
1Z
1`
0a
0m
1I
0q
0t
0d
1f
0H
0E
1~
0}
0.!
1/!
1*!
1-!
1/
0P
0N
1#!
0y
0\
1]
0o
0.
0+
0Y
0Z
0i
1@
0>
1r
1s
1v
1E
1H
1!!
1z
0b
0c
0f
0(!
0+!
0,!
1&
0$
1.
1+
1O
0k
1\
0]
1o
1.!
10!
1Z
0`
1a
1l
0G
0F
0C
0B
1c
1d
0e
0h
0r
0s
1u
0v
1A
1>
0!!
0z
0~
1(!
0)!
1+!
1,!
0/!
00!
0-
0,
0)
0(
0<
0?
1y
0\
1]
0o
1'
1$
0@
1G
1F
0D
1C
0c
0d
1e
1h
0p
0u
0A
0%
0"
1!!
1z
1b
1c
1f
1)!
1/!
10!
0'
0&
1-
1,
0*
1)
0I
1<
1?
0.!
00!
1A
1@
1D
1B
1d
0f
1p
1q
1t
0/
1%
1"
0A
0>
0*!
0-!
1.!
0/!
1(
1'
1&
1*
1I
0'
0$
0@
0H
0E
1>
1/
0&
1$
0.
0+
#320000
0!
0:
0J
#325000
1!
1:
1J
1U
1R
0'!
1"!
1r
0t
1*!
0,!
0G
1E
0-
1+
#330000
0!
0:
0J
#335000
1!
1:
1J
0U
0R
1'!
0"!
1V
1K
0&!
0r
1t
1j
0l
1o
0*!
1,!
1G
0E
0!!
1k
1-
0+
1~
0p
0q
0t
1*!
1-!
0I
1p
1r
1s
1v
1H
1E
0(!
0+!
0,!
0/
1I
1.
1+
0G
0F
0C
1/
0-
0,
0)
#340000
0!
0:
0J
#345000
1!
1:
1J
1U
1R
0'!
1"!
0s
1u
0v
1(!
0)!
1+!
1F
0D
1C
1,
0*
1)
#350000
0!
0:
0J
#355000
1!
1:
1J
0U
0R
1'!
0"!
0V
0K
1&!
1s
0u
1v
0j
1l
0o
0(!
1)!
0+!
1W
1Q
0%!
0F
1D
0C
1!!
0k
1i
0l
0,
1*
0)
0~
0r
0s
1u
0v
1k
1(!
0)!
1+!
1,!
1q
1t
0u
1G
1F
0D
1C
1~
1)!
0*!
0-!
1-
1,
0*
1)
0H
0E
0q
0t
1u
1D
0)!
1*!
1-!
0.
0+
1*
1H
1E
0D
1.
1+
0*
#360000
0!
0:
0J
#365000
1!
1:
1J
1U
1R
0'!
1"!
0p
1q
1r
1s
0u
1)!
0+!
0,!
0-!
0I
0H
0G
0F
1D
0/
0.
0-
0,
1*
#370000
0!
0:
0J
#375000
1!
1:
1J
0U
0R
1'!
0"!
1V
1K
0&!
1p
0q
0r
0s
1u
1j
1m
1o
0)!
1+!
1,!
1-!
1I
1H
1G
1F
0D
0!!
1n
0k
1/
1.
1-
1,
0*
0~
1}
1r
1s
0u
1v
0(!
1)!
0+!
0,!
0r
0s
0v
0G
0F
1D
0C
1(!
1+!
1,!
0-
0,
1*
0)
1C
1F
1G
1-
1,
1)
#380000
0!
0:
0J
#385000
1!
1:
1J
1U
1R
0'!
1"!
1r
0,!
0G
0-
#390000
0!
0:
0J
#395000
1!
1:
1J
0U
0R
1'!
0"!
0V
0K
1&!
0r
0j
0m
0o
1,!
0W
0Q
1%!
1G
1!!
0n
1k
0i
1l
1-
1~
0}
1s
1X
1M
0$!
0k
0+!
0Z
1^
1`
0a
0l
0s
1u
0F
0~
0)!
1+!
0y
1x
1\
0]
1o
0,
0D
1q
1t
0u
1F
0!!
0z
0c
0g
1)!
0*!
0-!
1,
0*
10!
0H
0E
1D
0=
0e
1g
0h
0p
0q
0t
1A
1*!
1-!
0.
0+
1*
0#
0I
0<
0?
1=
1'
1H
1E
0/
0%
1#
0"
1.
1+
#400000
0!
0:
0J
#405000
1!
1:
1J
1U
1R
0'!
1"!
1q
1r
1s
1v
0(!
0+!
0,!
0-!
0H
0G
0F
0C
0.
0-
0,
0)
#410000
0!
0:
0J
#415000
1!
1:
1J
0U
0R
1'!
0"!
1V
1K
0&!
0q
0r
0s
0v
1j
1l
0o
1(!
1+!
1,!
1-!
1H
1G
1F
1C
1!!
1.
1-
1,
1)
1p
1q
1t
0*!
0-!
1I
0H
0E
1/
0.
0+
#420000
0!
0:
0J
#425000
1!
1:
1J
1U
1R
0'!
1"!
1r
0t
1*!
0,!
0G
1E
0-
1+
#430000
0!
0:
0J
#435000
1!
1:
1J
0U
0R
1'!
0"!
0V
0K
1&!
0r
1t
0j
0l
1o
0*!
1,!
1W
1Q
0%!
1G
0E
0!!
1i
1l
1-
0+
0p
0q
0t
1k
1*!
1-!
0I
1H
1E
1~
0/
1.
1+
1p
1r
1s
1v
0(!
0+!
0,!
1I
0G
0F
0C
1/
0-
0,
0)
#440000
0!
0:
0J
#445000
1!
1:
1J
1U
1R
0'!
1"!
0s
1u
0v
1(!
0)!
1+!
1F
0D
1C
1,
0*
1)
#450000
0!
0:
0J
#455000
1!
1:
1J
0U
0R
1'!
0"!
1V
1K
0&!
1s
0u
1v
1j
0o
0(!
1)!
0+!
0F
1D
0C
1!!
0,
1*
0)
0r
0s
1u
0v
1(!
0)!
1+!
1,!
1G
1F
0D
1C
1-
1,
0*
1)
#460000
0!
0:
0J
#465000
1!
1:
1J
1U
1R
0'!
1"!
0p
1q
1r
1s
0u
1)!
0+!
0,!
0-!
0I
0H
0G
0F
1D
0/
0.
0-
0,
1*
#470000
0!
0:
0J
#475000
1!
1:
1J
0U
0R
1'!
0"!
0V
0K
1&!
1p
0q
0r
0s
1u
0j
1o
0)!
1+!
1,!
1-!
1I
0W
0Q
1%!
1H
1G
1F
0D
0!!
1/
0i
0l
1.
1-
1,
0*
1r
1s
0u
1v
0X
0M
1$!
0k
0(!
1)!
0+!
0,!
1Z
0^
0`
1a
1l
0G
0F
1D
0C
0~
1P
1N
0#!
1y
0x
0\
1]
0o
0-
0,
1*
0)
1Y
0Z
1^
1`
0a
1i
1j
1n
0p
0r
0s
0v
1!!
1z
1c
0d
1e
1f
1h
1(!
1+!
1,!
0I
1}
0y
1x
1\
0]
1o
0.!
1/!
00!
1G
1F
1C
1<
1?
1d
0f
1p
1q
1t
0/
0A
1@
0>
0!!
0z
0c
0g
0q
1s
0t
0*!
0-!
1.!
0/!
1-
1,
1)
1%
1"
1I
1*!
0+!
1-!
10!
0'
1&
0$
0H
0E
0=
0e
1g
0h
0s
1>
0@
1/
1A
1H
0F
1E
1+!
0.
0+
0&
1$
0#
0<
0?
1=
1'
1.
0,
1+
1F
0%
1#
0"
1,
#480000
0!
0:
0J
#485000
1!
1:
1J
1U
1R
0'!
1"!
1r
0,!
0G
0-
#490000
0!
0:
0J
#495000
1!
1:
1J
0U
0R
1'!
0"!
1V
1K
0&!
0r
0Y
1Z
0i
0j
0l
0o
1,!
1G
1!!
0n
0\
1]
1o
1-
1z
0}
0!!
1s
0+!
0p
0s
1e
0g
1h
0F
1+!
1<
0=
1?
0I
0,
1F
1%
0#
1"
0/
1,
#500000
0!
0:
0J
#505000
1!
1:
1J
1U
1R
0'!
1"!
1q
1r
1s
1v
0(!
0+!
0,!
0-!
0H
0G
0F
0C
0.
0-
0,
0)
#510000
0!
0:
0J
#515000
1!
1:
1J
0U
0R
1'!
0"!
0V
0K
1&!
0q
0r
0s
0v
1Y
0Z
1i
1j
1l
0o
1(!
1+!
1,!
1-!
1W
1Q
0%!
1H
1G
1F
1C
1!!
1n
1\
0]
1o
0\
1]
0i
0j
0l
0o
1.
1-
1,
1)
0z
1}
0!!
1p
1q
1t
1!!
0n
1z
0*!
0-!
1I
0q
0t
0e
1g
0h
0H
0E
1e
0g
1h
0}
1s
1*!
1-!
1/
0<
1=
0?
0+!
0.
0+
1q
0s
1t
1<
0=
1?
1E
1H
0%
1#
0"
0F
0*!
1+!
0-!
1%
0#
1"
1.
1+
0,
0H
0E
1F
0.
1,
0+
#520000
0!
0:
0J
#525000
1!
1:
1J
1U
1R
0'!
1"!
1r
0t
1*!
0,!
0G
1E
0-
1+
#530000
0!
0:
0J
#535000
1!
1:
1J
0U
0R
1'!
0"!
1V
1K
0&!
0r
1t
0Y
1Z
1i
1m
1o
0*!
1,!
1G
0E
0!!
1k
1-
0+
1~
0p
0q
0t
1*!
1-!
0I
1p
1r
1s
1v
1H
1E
0(!
0+!
0,!
0/
1I
1.
1+
0G
0F
0C
1/
0-
0,
0)
#540000
0!
0:
0J
#545000
1!
1:
1J
1U
1R
0'!
1"!
0s
1u
0v
1(!
0)!
1+!
1F
0D
1C
1,
0*
1)
#550000
0!
0:
0J
#555000
1!
1:
1J
0U
0R
1'!
0"!
0V
0K
1&!
1s
0u
1v
1Y
0Z
0i
0m
0o
0(!
1)!
0+!
0W
0Q
1%!
0F
1D
0C
1!!
0k
1\
0]
1i
1j
1l
1o
0,
1*
0)
0~
0r
0s
1u
0v
1X
1M
0$!
0!!
1n
0z
1(!
0)!
1+!
1,!
0Y
1Z
1k
0l
1q
1t
0u
1G
1F
0D
1C
0e
1g
0h
1}
0p
0q
0t
1)!
0*!
0-!
0n
1~
0\
1]
0o
1*!
1-!
1-
1,
0*
1)
0H
0E
0I
1p
0<
1=
0?
1D
1H
1E
1!!
1z
0p
1t
1u
0}
0/
0.
0+
1*
0%
1#
0"
1I
0)!
0*!
1.
1+
0I
1e
0g
1h
1p
0t
1/
0E
0D
1*!
0/
1<
0=
1?
1I
0+
0*
1E
1%
0#
1"
1/
1+
#560000
0!
0:
0J
#565000
1!
1:
1J
1U
1R
0'!
1"!
0p
1q
1r
1s
0u
1)!
0+!
0,!
0-!
0I
0H
0G
0F
1D
0/
0.
0-
0,
1*
#570000
0!
0:
0J
#575000
1!
1:
1J
0U
0R
1'!
0"!
1V
1K
0&!
1p
0q
0r
0s
1u
0i
0j
1l
1o
0)!
1+!
1,!
1-!
1I
1H
1G
1F
0D
0!!
1n
0k
1/
1.
1-
1,
0*
0~
1}
1r
1s
0u
1v
0(!
1)!
0+!
0,!
0r
0s
0v
0G
0F
1D
0C
1(!
1+!
1,!
0-
0,
1*
0)
1C
1F
1G
1-
1,
1)
#580000
0!
0:
0J
#585000
1!
1:
1J
1U
1R
0'!
1"!
1r
0,!
0G
0-
#590000
0!
0:
0J
#595000
1!
1:
1J
0U
0R
1'!
0"!
0V
0K
1&!
0r
1i
1j
0l
0o
1,!
1W
1Q
0%!
1G
1!!
0n
1k
1S
0[
1_
0`
0i
0j
1l
1-
1~
0}
1s
1n
0k
0]
0~
1}
1T
0+!
0}
1~
0s
1u
0F
1s
0u
0~
1}
0)!
1+!
1~
0}
0s
1u
1)!
0+!
0,
0M
0N
0O
0P
0Q
0W
0X
1%!
1#!
1$!
0D
1}
0~
1s
0u
1F
0)!
1+!
0S
0_
0n
0T
0Z
1[
0^
1`
0l
0F
1D
0}
1~
0s
1u
1)!
0+!
1,
0*
1F
0~
1}
1s
0u
0D
0)!
1+!
0,
1*
0s
1u
1D
0F
1\
1o
0}
0x
1)!
0+!
1,
0*
0D
1s
0u
1F
0)!
1+!
0,
1*
0b
1c
0e
1g
0h
1q
0s
1t
0!!
0z
0F
1D
1)!
0+!
1,
0*
1F
0D
0*!
1+!
0-!
00!
0,
1*
1D
0F
0c
0d
1e
1h
0p
0q
0t
0<
1=
0?
0B
1,
0*
0A
0H
0E
1F
1*!
1-!
1/!
10!
0,
1*
0(
0%
1#
0"
0I
1<
1?
0'
0.
1,
0+
1@
1E
1H
1A
0/
1%
1"
1'
1&
1.
1+
#600000
0!
0:
0J
#605000
1!
1:
1J
1U
1R
0'!
1"!
1q
1r
1s
1v
0(!
0+!
0,!
0-!
0H
0G
0F
0C
0.
0-
0,
0)
#610000
0!
0:
0J
#615000
1!
1:
1J
0U
0R
1'!
0"!
1V
1K
0&!
0q
0r
0s
0v
1l
0o
1(!
1+!
1,!
1-!
1H
1G
1F
1C
1!!
1.
1-
1,
1)
1p
1q
1t
0*!
0-!
1I
0H
0E
1/
0.
0+
#620000
0!
0:
0J
#625000
1!
1:
1J
1U
1R
0'!
1"!
1r
0t
1*!
0,!
0G
1E
0-
1+
#630000
0!
0:
0J
#635000
1!
1:
1J
0U
0R
1'!
0"!
0V
0K
1&!
0r
1t
0l
1o
0*!
1,!
1W
1Q
0%!
1G
0E
0!!
1j
1-
0+
0p
0q
0t
1k
1*!
1-!
0I
1H
1E
1~
0/
1.
1+
1p
1r
1s
1v
0(!
0+!
0,!
1I
0G
0F
0C
1/
0-
0,
0)
#640000
0!
0:
0J
#645000
1!
1:
1J
1U
1R
0'!
1"!
0s
1u
0v
1(!
0)!
1+!
1F
0D
1C
1,
0*
1)
#650000
0!
0:
0J
#655000
1!
1:
1J
0U
0R
1'!
0"!
1V
1K
0&!
1s
0u
1v
1i
0j
0o
0(!
1)!
0+!
0F
1D
0C
1!!
0,
1*
0)
0r
0s
1u
0v
1(!
0)!
1+!
1,!
1G
1F
0D
1C
1-
1,
0*
1)
#660000
0!
0:
0J
#665000
1!
1:
1J
1U
1R
0'!
1"!
0p
1q
1r
1s
0u
1)!
0+!
0,!
0-!
0I
0H
0G
0F
1D
0/
0.
0-
0,
1*
#670000
0!
0:
0J
